-0.3710878762993638
0.052226087965744905
-0.17180064012986163
0.26685258887108443
-0.12654130122848928
0.14632609066718483
-0.06416503074443447
0.17923345115364497
0.2316886513496993
0.11412943890054206